simulation/qsim/lab1.msim.vcd
$comment
	File created using the following command:
		vcd file lab1.msim.vcd -direction
$end
$date
	Mon Feb 22 20:05:21 2021
$end
$version
	ModelSim Version 2020.1
$end
$timescale
	1ps
$end

$scope module lab1_vhd_vec_tst $end
$var wire 1 ! C $end
$var wire 1 " data [0] $end
$var wire 1 # data [1] $end
$var wire 1 $ data [2] $end
$var wire 1 % data [3] $end
$var wire 1 & data [4] $end
$var wire 1 ' data [5] $end
$var wire 1 ( data [6] $end
$var wire 1 ) data [7] $end
$var wire 1 * data [8] $end
$var wire 1 + data [9] $end
$var wire 1 , data [10] $end
$var wire 1 - data [11] $end
$var wire 1 . data [12] $end
$var wire 1 / data [13] $end
$var wire 1 0 data [14] $end
$var wire 1 1 data [15] $end
$var wire 1 2 Q [0] $end
$var wire 1 3 Q [1] $end
$var wire 1 4 Q [2] $end
$var wire 1 5 Q [3] $end
$var wire 1 6 Q [4] $end
$var wire 1 7 Q [5] $end
$var wire 1 8 Q [6] $end
$var wire 1 9 Q [7] $end
$var wire 1 : Q [8] $end
$var wire 1 ; Q [9] $end
$var wire 1 < Q [10] $end
$var wire 1 = Q [11] $end
$var wire 1 > Q [12] $end
$var wire 1 ? Q [13] $end
$var wire 1 @ Q [14] $end
$var wire 1 A Q [15] $end
$var wire 1 B Q [16] $end
$var wire 1 C Q [17] $end
$var wire 1 D Q [18] $end
$var wire 1 E Q [19] $end
$var wire 1 F Q [20] $end

$scope module i1 $end
$var wire 1 G gnd $end
$var wire 1 H vcc $end
$var wire 1 I unknown $end
$var wire 1 J devoe $end
$var wire 1 K devclrn $end
$var wire 1 L devpor $end
$var wire 1 M ww_devoe $end
$var wire 1 N ww_devclrn $end
$var wire 1 O ww_devpor $end
$var wire 1 P ww_C $end
$var wire 1 Q ww_data [0] $end
$var wire 1 R ww_data [1] $end
$var wire 1 S ww_data [2] $end
$var wire 1 T ww_data [3] $end
$var wire 1 U ww_data [4] $end
$var wire 1 V ww_data [5] $end
$var wire 1 W ww_data [6] $end
$var wire 1 X ww_data [7] $end
$var wire 1 Y ww_data [8] $end
$var wire 1 Z ww_data [9] $end
$var wire 1 [ ww_data [10] $end
$var wire 1 \ ww_data [11] $end
$var wire 1 ] ww_data [12] $end
$var wire 1 ^ ww_data [13] $end
$var wire 1 _ ww_data [14] $end
$var wire 1 ` ww_data [15] $end
$var wire 1 a ww_Q [0] $end
$var wire 1 b ww_Q [1] $end
$var wire 1 c ww_Q [2] $end
$var wire 1 d ww_Q [3] $end
$var wire 1 e ww_Q [4] $end
$var wire 1 f ww_Q [5] $end
$var wire 1 g ww_Q [6] $end
$var wire 1 h ww_Q [7] $end
$var wire 1 i ww_Q [8] $end
$var wire 1 j ww_Q [9] $end
$var wire 1 k ww_Q [10] $end
$var wire 1 l ww_Q [11] $end
$var wire 1 m ww_Q [12] $end
$var wire 1 n ww_Q [13] $end
$var wire 1 o ww_Q [14] $end
$var wire 1 p ww_Q [15] $end
$var wire 1 q ww_Q [16] $end
$var wire 1 r ww_Q [17] $end
$var wire 1 s ww_Q [18] $end
$var wire 1 t ww_Q [19] $end
$var wire 1 u ww_Q [20] $end
$var wire 1 v \C~input_o\ $end
$var wire 1 w \~QUARTUS_CREATED_GND~I_combout\ $end
$var wire 1 x \data[15]~input_o\ $end
$var wire 1 y \data[14]~input_o\ $end
$var wire 1 z \data[13]~input_o\ $end
$var wire 1 { \data[12]~input_o\ $end
$var wire 1 | \data[11]~input_o\ $end
$var wire 1 } \Add34~0_combout\ $end
$var wire 1 ~ \data[10]~input_o\ $end
$var wire 1 !! \data[9]~input_o\ $end
$var wire 1 "! \data[8]~input_o\ $end
$var wire 1 #! \data[7]~input_o\ $end
$var wire 1 $! \data[6]~input_o\ $end
$var wire 1 %! \data[5]~input_o\ $end
$var wire 1 &! \data[4]~input_o\ $end
$var wire 1 '! \Add34~1_combout\ $end
$var wire 1 (! \Add30~0_combout\ $end
$var wire 1 )! \data[3]~input_o\ $end
$var wire 1 *! \data[2]~input_o\ $end
$var wire 1 +! \data[1]~input_o\ $end
$var wire 1 ,! \Add24~0_combout\ $end
$var wire 1 -! \data[0]~input_o\ $end
$var wire 1 .! \Add34~2_combout\ $end
$var wire 1 /! \Add16~0_combout\ $end
$var wire 1 0! \Add8~0_combout\ $end
$var wire 1 1! \ALT_INV_Add34~1_combout\ $end
$var wire 1 2! \ALT_INV_Add34~2_combout\ $end
$var wire 1 3! \ALT_INV_data[12]~input_o\ $end
$var wire 1 4! \ALT_INV_data[11]~input_o\ $end
$var wire 1 5! \ALT_INV_data[10]~input_o\ $end
$var wire 1 6! \ALT_INV_data[9]~input_o\ $end
$var wire 1 7! \ALT_INV_data[8]~input_o\ $end
$var wire 1 8! \ALT_INV_data[15]~input_o\ $end
$var wire 1 9! \ALT_INV_data[14]~input_o\ $end
$var wire 1 :! \ALT_INV_data[13]~input_o\ $end
$var wire 1 ;! \ALT_INV_data[7]~input_o\ $end
$var wire 1 <! \ALT_INV_data[6]~input_o\ $end
$var wire 1 =! \ALT_INV_data[5]~input_o\ $end
$var wire 1 >! \ALT_INV_data[4]~input_o\ $end
$var wire 1 ?! \ALT_INV_data[3]~input_o\ $end
$var wire 1 @! \ALT_INV_data[2]~input_o\ $end
$var wire 1 A! \ALT_INV_data[1]~input_o\ $end
$var wire 1 B! \ALT_INV_data[0]~input_o\ $end
$upscope $end
$upscope $end
$enddefinitions $end
#0
$dumpvars
0!
0G
1H
xI
1J
1K
1L
1M
1N
1O
0P
0v
xw
1x
0y
1z
1{
1|
0}
1~
0!!
0"!
0#!
0$!
1%!
0&!
1'!
0(!
0)!
0*!
1+!
1,!
0-!
0.!
0/!
10!
01!
12!
03!
04!
05!
16!
17!
08!
19!
0:!
1;!
1<!
0=!
1>!
1?!
1@!
0A!
1B!
0"
1#
0$
0%
0&
1'
0(
0)
0*
0+
1,
1-
1.
1/
00
11
0Q
1R
0S
0T
0U
1V
0W
0X
0Y
0Z
1[
1\
1]
1^
0_
1`
1a
0b
0c
1d
1e
0f
0g
0h
0i
1j
0k
0l
0m
0n
1o
0p
1q
1r
1s
0t
1u
12
03
04
15
16
07
08
09
0:
1;
0<
0=
0>
0?
1@
0A
1B
1C
1D
0E
1F
$end
#5000
1!
1P
1v
#10000
0!
0P
0v
#15000
1!
1P
1v
#20000
0!
0P
0v
#25000
1!
1P
1v
#30000
0!
0P
0v
#35000
1!
1P
1v
#40000
0!
0P
0v
#45000
1!
1P
1v
#50000
0!
0P
0v
#55000
1!
1P
1v
#60000
0!
0P
0v
#65000
1!
1P
1v
#70000
0!
0P
0v
#75000
1!
1P
1v
#80000
0!
0P
0v
#85000
1!
1P
1v
#90000
0!
0P
0v
#95000
1!
1P
1v
#100000
0!
0P
0v
#105000
1!
1P
1v
#110000
0!
0P
0v
#115000
1!
1P
1v
#120000
0!
0P
0v
#125000
1!
1P
1v
#130000
0!
0P
0v
#135000
1!
1P
1v
#140000
0!
0P
0v
#145000
1!
1P
1v
#150000
0!
0P
0v
#155000
1!
1P
1v
#160000
0!
0P
0v
#165000
1!
1P
1v
#170000
0!
0P
0v
#175000
1!
1P
1v
#180000
0!
0P
0v
#185000
1!
1P
1v
#190000
0!
0P
0v
#195000
1!
1P
1v
#200000
0!
0P
0v
#205000
1!
1P
1v
#210000
0!
0P
0v
#215000
1!
1P
1v
#220000
0!
0P
0v
#225000
1!
1P
1v
#230000
0!
0P
0v
#235000
1!
1P
1v
#240000
0!
0P
0v
#245000
1!
1P
1v
#250000
0!
0P
0v
#255000
1!
1P
1v
#260000
0!
0P
0v
#265000
1!
1P
1v
#270000
0!
0P
0v
#275000
1!
1P
1v
#280000
0!
0P
0v
#285000
1!
1P
1v
#290000
0!
0P
0v
#295000
1!
1P
1v
#300000
0!
0P
0v
#305000
1!
1P
1v
#310000
0!
0P
0v
#315000
1!
1P
1v
#320000
0!
0P
0v
#325000
1!
1P
1v
#330000
0!
0P
0v
#335000
1!
1P
1v
#340000
0!
0P
0v
#345000
1!
1P
1v
#350000
0!
0P
0v
#355000
1!
1P
1v
#360000
0!
0P
0v
#365000
1!
1P
1v
#370000
0!
0P
0v
#375000
1!
1P
1v
#380000
0!
0P
0v
#385000
1!
1P
1v
#390000
0!
0P
0v
#395000
1!
1P
1v
#400000
0!
0P
0v
#405000
1!
1P
1v
#410000
0!
0P
0v
#415000
1!
1P
1v
#420000
0!
0P
0v
#425000
1!
1P
1v
#430000
0!
0P
0v
#435000
1!
1P
1v
#440000
0!
0P
0v
#445000
1!
1P
1v
#450000
0!
0P
0v
#455000
1!
1P
1v
#460000
0!
0P
0v
#465000
1!
1P
1v
#470000
0!
0P
0v
#475000
1!
1P
1v
#480000
0!
0P
0v
#485000
1!
1P
1v
#490000
0!
0P
0v
#495000
1!
1P
1v
#500000
0!
0P
0v
#505000
1!
1P
1v
#510000
0!
0P
0v
#515000
1!
1P
1v
#520000
0!
0P
0v
#525000
1!
1P
1v
#530000
0!
0P
0v
#535000
1!
1P
1v
#540000
0!
0P
0v
#545000
1!
1P
1v
#550000
0!
0P
0v
#555000
1!
1P
1v
#560000
0!
0P
0v
#565000
1!
1P
1v
#570000
0!
0P
0v
#575000
1!
1P
1v
#580000
0!
0P
0v
#585000
1!
1P
1v
#590000
0!
0P
0v
#595000
1!
1P
1v
#600000
0!
0P
0v
#605000
1!
1P
1v
#610000
0!
0P
0v
#615000
1!
1P
1v
#620000
0!
0P
0v
#625000
1!
1P
1v
#630000
0!
0P
0v
#635000
1!
1P
1v
#640000
0!
0P
0v
#645000
1!
1P
1v
#650000
0!
0P
0v
#655000
1!
1P
1v
#660000
0!
0P
0v
#665000
1!
1P
1v
#670000
0!
0P
0v
#675000
1!
1P
1v
#680000
0!
0P
0v
#685000
1!
1P
1v
#690000
0!
0P
0v
#695000
1!
1P
1v
#700000
0!
0P
0v
#705000
1!
1P
1v
#710000
0!
0P
0v
#715000
1!
1P
1v
#720000
0!
0P
0v
#725000
1!
1P
1v
#730000
0!
0P
0v
#735000
1!
1P
1v
#740000
0!
0P
0v
#745000
1!
1P
1v
#750000
0!
0P
0v
#755000
1!
1P
1v
#760000
0!
0P
0v
#765000
1!
1P
1v
#770000
0!
0P
0v
#775000
1!
1P
1v
#780000
0!
0P
0v
#785000
1!
1P
1v
#790000
0!
0P
0v
#795000
1!
1P
1v
#800000
0!
0P
0v
#805000
1!
1P
1v
#810000
0!
0P
0v
#815000
1!
1P
1v
#820000
0!
0P
0v
#825000
1!
1P
1v
#830000
0!
0P
0v
#835000
1!
1P
1v
#840000
0!
0P
0v
#845000
1!
1P
1v
#850000
0!
0P
0v
#855000
1!
1P
1v
#860000
0!
0P
0v
#865000
1!
1P
1v
#870000
0!
0P
0v
#875000
1!
1P
1v
#880000
0!
0P
0v
#885000
1!
1P
1v
#890000
0!
0P
0v
#895000
1!
1P
1v
#900000
0!
0P
0v
#905000
1!
1P
1v
#910000
0!
0P
0v
#915000
1!
1P
1v
#920000
0!
0P
0v
#925000
1!
1P
1v
#930000
0!
0P
0v
#935000
1!
1P
1v
#940000
0!
0P
0v
#945000
1!
1P
1v
#950000
0!
0P
0v
#955000
1!
1P
1v
#960000
0!
0P
0v
#965000
1!
1P
1v
#970000
0!
0P
0v
#975000
1!
1P
1v
#980000
0!
0P
0v
#985000
1!
1P
1v
#990000
0!
0P
0v
#995000
1!
1P
1v
